Análisis de datos (Grado de Matemáticas UIB) - 1 Introducción al Análisis Multivariante de Datos
…
Formad grupos de 3 integrantes.

Trabajaréis con los datos pingüinos, leed la documentación y seguid las siguientes instrucciones:

Cread un repositorio en Github para vuestro grupo con un nombre que sea fácilmente identificable para los profesores de la asignatura, por ejemplo,“Entrega_1_AD”.

Cread un proyecto nuevo en RStudio conectado al repositorio que habéis creado en el paso anterior. Agregad un documento de quarto donde trabajaréis.

Instalad y cargad en RStudio la librería palmerpenguins , así como el conjunto de datos penguins

#install.packages("palmerpenguins",dep=TRUE)
library("palmerpenguins")
print(penguins, width = 50)

# A tibble: 344 × 8
   species island    bill_length_mm bill_depth_mm
   <fct>   <fct>              <dbl>         <dbl>
 1 Adelie  Torgersen           39.1          18.7
 2 Adelie  Torgersen           39.5          17.4
 3 Adelie  Torgersen           40.3          18  
 4 Adelie  Torgersen           NA            NA  
 5 Adelie  Torgersen           36.7          19.3
 6 Adelie  Torgersen           39.3          20.6
 7 Adelie  Torgersen           38.9          17.8
 8 Adelie  Torgersen           39.2          19.6
 9 Adelie  Torgersen           34.1          18.1
10 Adelie  Torgersen           42            20.2
# ℹ 334 more rows
# ℹ 4 more variables: flipper_length_mm <int>,
#   body_mass_g <int>, sex <fct>, year <int>
…
Un tibble nunca cambia el tipo de entrada. Ya no hay que preocuparse de que los caracteres se conviertan automáticamente en cadenas.

Un tibble puede tener columnas que son listas.

Un tibble puede tener nombres de variables no estándar. Pueden empezar por un número o contener espacios. Para utilizarlo se refiere a estos en un backtick, por ejemplo, peso en Kg.

Sólo recicla vectores de longitud 1.

No tiene como atributo nombres de filas row.names.

Por defecto, tibble() imprime sólo las diez primeras filas, todas las columnas que caben en la pantalla, y las clases de las columnas

penguins

# A tibble: 344 × 8
   species island    bill_length_mm bill_depth_mm flipper_length_mm body_mass_g
   <fct>   <fct>              <dbl>         <dbl>             <int>       <int>
 1 Adelie  Torgersen           39.1          18.7               181        3750
 2 Adelie  Torgersen           39.5          17.4               186        3800
 3 Adelie  Torgersen           40.3          18                 195        3250
 4 Adelie  Torgersen           NA            NA                  NA          NA
 5 Adelie  Torgersen           36.7          19.3               193        3450
 6 Adelie  Torgersen           39.3          20.6               190        3650
 7 Adelie  Torgersen           38.9          17.8               181        3625
 8 Adelie  Torgersen           39.2          19.6               195        4675
 9 Adelie  Torgersen           34.1          18.1               193        3475
10 Adelie  Torgersen           42            20.2               190        4250
# ℹ 334 more rows
# ℹ 2 more variables: sex <fct>, year <int>
…
La función nest() genera datos anidados en un data frame con una fila por species y year.

Los datos anidados nested_data por columnas contienen tibbles con seis columnas cada uno y un número de observaciones que pueden ser distintos.

Los datos anidados son útiles si queremos aplicar funciones a cada subgrupo de datos (por ejemplo, comparar estadísticos por especie).

Para deshacer las estructuras de datos anidados se puede usar la función tidyr::unnest().

nested_penguins %>% unnest(cols = c(nested_data)) 

# A tibble: 344 × 8
   species  year island    bill_length_mm bill_depth_mm flipper_length_mm
   <fct>   <int> <fct>              <dbl>         <dbl>             <int>
 1 Adelie   2007 Torgersen           39.1          18.7               181
 2 Adelie   2007 Torgersen           39.5          17.4               186
 3 Adelie   2007 Torgersen           40.3          18                 195
 4 Adelie   2007 Torgersen           NA            NA                  NA
 5 Adelie   2007 Torgersen           36.7          19.3               193
 6 Adelie   2007 Torgersen           39.3          20.6               190
 7 Adelie   2007 Torgersen           38.9          17.8               181
 8 Adelie   2007 Torgersen           39.2          19.6               195
 9 Adelie   2007 Torgersen           34.1          18.1               193
10 Adelie   2007 Torgersen           42            20.2               190
# ℹ 334 more rows
# ℹ 2 more variables: body_mass_g <int>, sex <fct>

Dividir y combinar múltiples columnas en una sola.

penguins %>% unite(col = "specie_sex",
                   c(species, sex), sep = "_", remove = T)

# A tibble: 344 × 7
   specie_sex  island bill_length_mm bill_depth_mm flipper_length_mm body_mass_g
   <chr>       <fct>           <dbl>         <dbl>             <int>       <int>
 1 Adelie_male Torge…           39.1          18.7               181        3750
 2 Adelie_fem… Torge…           39.5          17.4               186        3800
 3 Adelie_fem… Torge…           40.3          18                 195        3250
 4 Adelie_NA   Torge…           NA            NA                  NA          NA
 5 Adelie_fem… Torge…           36.7          19.3               193        3450
 6 Adelie_male Torge…           39.3          20.6               190        3650
 7 Adelie_fem… Torge…           38.9          17.8               181        3625
 8 Adelie_male Torge…           39.2          19.6               195        4675
 9 Adelie_NA   Torge…           34.1          18.1               193        3475
10 Adelie_NA   Torge…           42            20.2               190        4250
# ℹ 334 more rows
# ℹ 1 more variable: year <int>

Separar una sola columna, que contiene varios valores, en varias columnas.

penguins %>% separate(bill_length_mm, sep = 2, into = c("cm", "mm"))

# A tibble: 344 × 9
   species island  cm    mm    bill_depth_mm flipper_length_mm body_mass_g sex  
   <fct>   <fct>   <chr> <chr>         <dbl>             <int>       <int> <fct>
 1 Adelie  Torger… 39    ".1"           18.7               181        3750 male 
 2 Adelie  Torger… 39    ".5"           17.4               186        3800 fema…
 3 Adelie  Torger… 40    ".3"           18                 195        3250 fema…
 4 Adelie  Torger… <NA>  <NA>           NA                  NA          NA <NA> 
 5 Adelie  Torger… 36    ".7"           19.3               193        3450 fema…
 6 Adelie  Torger… 39    ".3"           20.6               190        3650 male 
 7 Adelie  Torger… 38    ".9"           17.8               181        3625 fema…
 8 Adelie  Torger… 39    ".2"           19.6               195        4675 male 
 9 Adelie  Torger… 34    ".1"           18.1               193        3475 <NA> 
10 Adelie  Torger… 42    ""             20.2               190        4250 <NA> 
# ℹ 334 more rows
# ℹ 1 more variable: year <int>

Separar una sola columna, que contiene varios valores, en varias filas.

penguins %>% separate_rows(island, sep = "s", convert = T)

# A tibble: 564 × 8
   species island bill_length_mm bill_depth_mm flipper_length_mm body_mass_g
   <fct>   <chr>           <dbl>         <dbl>             <int>       <int>
 1 Adelie  Torger           39.1          18.7               181        3750
 2 Adelie  en               39.1          18.7               181        3750
 3 Adelie  Torger           39.5          17.4               186        3800
 4 Adelie  en               39.5          17.4               186        3800
 5 Adelie  Torger           40.3          18                 195        3250
 6 Adelie  en               40.3          18                 195        3250
 7 Adelie  Torger           NA            NA                  NA          NA
 8 Adelie  en               NA            NA                  NA          NA
 9 Adelie  Torger           36.7          19.3               193        3450
10 Adelie  en               36.7          19.3               193        3450
# ℹ 554 more rows
# ℹ 2 more variables: sex <fct>, year <int>
…
