Análisis de datos - 1 Introducción al Análisis de Datos
…
Trabajaréis con datos del repositorio de Datos abiertos del Gobierno de España. Entrad al catálogo de datos y seleccionad un conjunto de datos que os interese. El conjunto de datos debe tener datos cuantitativos y cualtitativos (mejor si contiene datos ordinales), por ejemplo, Alumnado matriculado en Escuelas Oficiales de Idiomas 2023

Cread un repositorio en Github para vuestro grupo con un nombre que sea fácilmente identificable, por ejemplo,“Entrega_1_AD”.

Cread un proyecto nuevo en RStudio conectado al repositorio que habéis creado en el paso anterior. Agregad un documento de quarto donde trabajaréis.

Realizad un análisis exploratorio de los datos, redactad un informe con los hallazgos más importantes y entregadlo en la tarea de Aula Digital disponible. Revisad la fecha en que cierra la tarea.

Más adelante, en la asignatura, algunas técnicas que explicaremos se ejemplificarán haciendo uso del conjunto de datos: pingüinos, leed la documentación, instalad y cargad en RStudio la librería palmerpenguins , así como el conjunto de datos penguins

#install.packages("palmerpenguins",dep=TRUE)
library("palmerpenguins")
print(penguins, width = 50)

# A tibble: 344 × 8
   species island    bill_length_mm bill_depth_mm
   <fct>   <fct>              <dbl>         <dbl>
 1 Adelie  Torgersen           39.1          18.7
 2 Adelie  Torgersen           39.5          17.4
 3 Adelie  Torgersen           40.3          18  
 4 Adelie  Torgersen           NA            NA  
 5 Adelie  Torgersen           36.7          19.3
 6 Adelie  Torgersen           39.3          20.6
 7 Adelie  Torgersen           38.9          17.8
 8 Adelie  Torgersen           39.2          19.6
 9 Adelie  Torgersen           34.1          18.1
10 Adelie  Torgersen           42            20.2
# ℹ 334 more rows
# ℹ 4 more variables: flipper_length_mm <int>,
#   body_mass_g <int>, sex <fct>, year <int>
…
Un tibble nunca cambia el tipo de entrada. Ya no hay que preocuparse de que los caracteres se conviertan automáticamente en cadenas.

Un tibble puede tener columnas que son listas.

Un tibble puede tener nombres de variables no estándar. Pueden empezar por un número o contener espacios. Para utilizarlo se refiere a estos en un backtick, por ejemplo, peso en Kg.

Sólo recicla vectores de longitud 1.

No tiene como atributo nombres de filas row.names.

Por defecto, tibble() imprime sólo las diez primeras filas, todas las columnas que caben en la pantalla, y las clases de las columnas

penguins

# A tibble: 344 × 8
   species island    bill_length_mm bill_depth_mm flipper_length_mm body_mass_g
   <fct>   <fct>              <dbl>         <dbl>             <int>       <int>
 1 Adelie  Torgersen           39.1          18.7               181        3750
 2 Adelie  Torgersen           39.5          17.4               186        3800
 3 Adelie  Torgersen           40.3          18                 195        3250
 4 Adelie  Torgersen           NA            NA                  NA          NA
 5 Adelie  Torgersen           36.7          19.3               193        3450
 6 Adelie  Torgersen           39.3          20.6               190        3650
 7 Adelie  Torgersen           38.9          17.8               181        3625
 8 Adelie  Torgersen           39.2          19.6               195        4675
 9 Adelie  Torgersen           34.1          18.1               193        3475
10 Adelie  Torgersen           42            20.2               190        4250
# ℹ 334 more rows
# ℹ 2 more variables: sex <fct>, year <int>
…
Los datos anidados nested_penguins contienen tibbles con seis columnas cada uno y un número de observaciones que pueden ser distintos.

Los datos anidados son útiles si queremos aplicar funciones a cada subgrupo de datos (por ejemplo, comparar estadísticos por especie).

Para deshacer las estructuras de datos anidados se puede usar la función tidyr::unnest().

nested_penguins %>% unnest(cols = c(nested_data)) 

# A tibble: 344 × 8
   species  year island    bill_length_mm bill_depth_mm flipper_length_mm
   <fct>   <int> <fct>              <dbl>         <dbl>             <int>
 1 Adelie   2007 Torgersen           39.1          18.7               181
 2 Adelie   2007 Torgersen           39.5          17.4               186
 3 Adelie   2007 Torgersen           40.3          18                 195
 4 Adelie   2007 Torgersen           NA            NA                  NA
 5 Adelie   2007 Torgersen           36.7          19.3               193
 6 Adelie   2007 Torgersen           39.3          20.6               190
 7 Adelie   2007 Torgersen           38.9          17.8               181
 8 Adelie   2007 Torgersen           39.2          19.6               195
 9 Adelie   2007 Torgersen           34.1          18.1               193
10 Adelie   2007 Torgersen           42            20.2               190
# ℹ 334 more rows
# ℹ 2 more variables: body_mass_g <int>, sex <fct>

Ejemplo: Dividir y combinar múltiples columnas en una sola.

penguins %>% unite(col = "specie_sex",
                   c(species, sex), sep = "_", remove = T)

# A tibble: 344 × 7
   specie_sex  island bill_length_mm bill_depth_mm flipper_length_mm body_mass_g
   <chr>       <fct>           <dbl>         <dbl>             <int>       <int>
 1 Adelie_male Torge…           39.1          18.7               181        3750
 2 Adelie_fem… Torge…           39.5          17.4               186        3800
 3 Adelie_fem… Torge…           40.3          18                 195        3250
 4 Adelie_NA   Torge…           NA            NA                  NA          NA
 5 Adelie_fem… Torge…           36.7          19.3               193        3450
 6 Adelie_male Torge…           39.3          20.6               190        3650
 7 Adelie_fem… Torge…           38.9          17.8               181        3625
 8 Adelie_male Torge…           39.2          19.6               195        4675
 9 Adelie_NA   Torge…           34.1          18.1               193        3475
10 Adelie_NA   Torge…           42            20.2               190        4250
# ℹ 334 more rows
# ℹ 1 more variable: year <int>

Ejemplo: Separar una sola columna, que contiene varios valores, en varias columnas.

penguins %>% separate(bill_length_mm, sep = 2, into = c("cm", "mm"))

# A tibble: 344 × 9
   species island  cm    mm    bill_depth_mm flipper_length_mm body_mass_g sex  
   <fct>   <fct>   <chr> <chr>         <dbl>             <int>       <int> <fct>
 1 Adelie  Torger… 39    ".1"           18.7               181        3750 male 
 2 Adelie  Torger… 39    ".5"           17.4               186        3800 fema…
 3 Adelie  Torger… 40    ".3"           18                 195        3250 fema…
 4 Adelie  Torger… <NA>  <NA>           NA                  NA          NA <NA> 
 5 Adelie  Torger… 36    ".7"           19.3               193        3450 fema…
 6 Adelie  Torger… 39    ".3"           20.6               190        3650 male 
 7 Adelie  Torger… 38    ".9"           17.8               181        3625 fema…
 8 Adelie  Torger… 39    ".2"           19.6               195        4675 male 
 9 Adelie  Torger… 34    ".1"           18.1               193        3475 <NA> 
10 Adelie  Torger… 42    ""             20.2               190        4250 <NA> 
# ℹ 334 more rows
# ℹ 1 more variable: year <int>

Ejemplo: Separar una sola columna, que contiene varios valores, en varias filas.

penguins %>% separate_rows(island, sep = "s", convert = T)

# A tibble: 564 × 8
   species island bill_length_mm bill_depth_mm flipper_length_mm body_mass_g
   <fct>   <chr>           <dbl>         <dbl>             <int>       <int>
 1 Adelie  Torger           39.1          18.7               181        3750
 2 Adelie  en               39.1          18.7               181        3750
 3 Adelie  Torger           39.5          17.4               186        3800
 4 Adelie  en               39.5          17.4               186        3800
 5 Adelie  Torger           40.3          18                 195        3250
 6 Adelie  en               40.3          18                 195        3250
 7 Adelie  Torger           NA            NA                  NA          NA
 8 Adelie  en               NA            NA                  NA          NA
 9 Adelie  Torger           36.7          19.3               193        3450
10 Adelie  en               36.7          19.3               193        3450
# ℹ 554 more rows
# ℹ 2 more variables: sex <fct>, year <int>
…
1.7.7.1 Operaciones por filas

filter() selecciona las filas que cumplen uno o varios criterios lógicos

slice() selecciona las filas en función de su ubicación en los datos

arrange() cambia el orden de las filas

Ejemplo: Seleccionar un data frame con los pingüinos de la especie “Adelie”.

penguins %>% 
  filter(species == "Adelie")

# A tibble: 152 × 8
   species island    bill_length_mm bill_depth_mm flipper_length_mm body_mass_g
   <fct>   <fct>              <dbl>         <dbl>             <int>       <int>
 1 Adelie  Torgersen           39.1          18.7               181        3750
 2 Adelie  Torgersen           39.5          17.4               186        3800
 3 Adelie  Torgersen           40.3          18                 195        3250
 4 Adelie  Torgersen           NA            NA                  NA          NA
 5 Adelie  Torgersen           36.7          19.3               193        3450
 6 Adelie  Torgersen           39.3          20.6               190        3650
 7 Adelie  Torgersen           38.9          17.8               181        3625
 8 Adelie  Torgersen           39.2          19.6               195        4675
 9 Adelie  Torgersen           34.1          18.1               193        3475
10 Adelie  Torgersen           42            20.2               190        4250
# ℹ 142 more rows
# ℹ 2 more variables: sex <fct>, year <int>
…
# A tibble: 2 × 8
  species island    bill_length_mm bill_depth_mm flipper_length_mm body_mass_g
  <fct>   <fct>              <dbl>         <dbl>             <int>       <int>
1 Adelie  Torgersen             NA            NA                NA          NA
2 Gentoo  Biscoe                NA            NA                NA          NA
# ℹ 2 more variables: sex <fct>, year <int>

Ejemplo: Seleccionar los pingüinos observados antes del año 2008 o después del año 2008 y que tienen masa corporal entre 3800 y 4000 gramos.

penguins %>% 
  filter(between(body_mass_g, 3800, 4000) & (year < 2008 | year > 2008))

# A tibble: 28 × 8
   species island    bill_length_mm bill_depth_mm flipper_length_mm body_mass_g
   <fct>   <fct>              <dbl>         <dbl>             <int>       <int>
 1 Adelie  Torgersen           39.5          17.4               186        3800
 2 Adelie  Torgersen           38.6          21.2               191        3800
 3 Adelie  Biscoe              35.9          19.2               189        3800
 4 Adelie  Biscoe              38.2          18.1               185        3950
 5 Adelie  Biscoe              38.8          17.2               180        3800
 6 Adelie  Biscoe              35.3          18.9               187        3800
 7 Adelie  Biscoe              40.5          18.9               180        3950
 8 Adelie  Dream               37.2          18.1               178        3900
 9 Adelie  Dream               40.9          18.9               184        3900
10 Adelie  Dream               38.8          20                 190        3950
# ℹ 18 more rows
# ℹ 2 more variables: sex <fct>, year <int>
…
1.7.7.3 Operaciones sobre datos agrupados

group_by() divide los datos en función de una o varias columnas

summarise() reduce un grupo de datos en una sola fila

Ejemplo: Partición de los datos por tipo de especie del pingüino

penguins %>% group_by(species)

# A tibble: 344 × 8
# Groups:   species [3]
   species island    bill_length_mm bill_depth_mm flipper_length_mm body_mass_g
   <fct>   <fct>              <dbl>         <dbl>             <int>       <int>
 1 Adelie  Torgersen           39.1          18.7               181        3750
 2 Adelie  Torgersen           39.5          17.4               186        3800
 3 Adelie  Torgersen           40.3          18                 195        3250
 4 Adelie  Torgersen           NA            NA                  NA          NA
 5 Adelie  Torgersen           36.7          19.3               193        3450
 6 Adelie  Torgersen           39.3          20.6               190        3650
 7 Adelie  Torgersen           38.9          17.8               181        3625
 8 Adelie  Torgersen           39.2          19.6               195        4675
 9 Adelie  Torgersen           34.1          18.1               193        3475
10 Adelie  Torgersen           42            20.2               190        4250
# ℹ 334 more rows
# ℹ 2 more variables: sex <fct>, year <int>
…
Utilizar group_by(), seguido de summarise() y ungroup() refleja el paradigma dividir-aplicar-combinar del análisis de datos: Dividir los datos en particiones, aplicar alguna función a los datos y luego combinar los resultados.

.add = T permite añadir nuevas variables de agrupación (si no, se anula la primera)

penguins %>% 
  group_by(species) %>% 
  group_by(year, .add = T)   # equivalente a: group_by(species, year)

# A tibble: 344 × 8
# Groups:   species, year [9]
   species island    bill_length_mm bill_depth_mm flipper_length_mm body_mass_g
   <fct>   <fct>              <dbl>         <dbl>             <int>       <int>
 1 Adelie  Torgersen           39.1          18.7               181        3750
 2 Adelie  Torgersen           39.5          17.4               186        3800
 3 Adelie  Torgersen           40.3          18                 195        3250
 4 Adelie  Torgersen           NA            NA                  NA          NA
 5 Adelie  Torgersen           36.7          19.3               193        3450
 6 Adelie  Torgersen           39.3          20.6               190        3650
 7 Adelie  Torgersen           38.9          17.8               181        3625
 8 Adelie  Torgersen           39.2          19.6               195        4675
 9 Adelie  Torgersen           34.1          18.1               193        3475
10 Adelie  Torgersen           42            20.2               190        4250
# ℹ 334 more rows
# ℹ 2 more variables: sex <fct>, year <int>
…
pull() extrae columnas individuales como vectores

penguins %>% 
  pull(year)  # equivalente a: penguins$year

if_else() sentencia if-else vectorizada.

penguins %>% select(species, island, body_mass_g) %>% 
  mutate(penguin_size = if_else(body_mass_g < 3500,
                                "pequeño",
                                "grande"))

# A tibble: 344 × 4
   species island    body_mass_g penguin_size
   <fct>   <fct>           <int> <chr>       
 1 Adelie  Torgersen        3750 grande      
 2 Adelie  Torgersen        3800 grande      
 3 Adelie  Torgersen        3250 pequeño     
 4 Adelie  Torgersen          NA <NA>        
 5 Adelie  Torgersen        3450 pequeño     
 6 Adelie  Torgersen        3650 grande      
 7 Adelie  Torgersen        3625 grande      
 8 Adelie  Torgersen        4675 grande      
 9 Adelie  Torgersen        3475 pequeño     
10 Adelie  Torgersen        4250 grande      
# ℹ 334 more rows

lag() desplaza los valores de las columnas n posiciones hacia adelante

penguins %>% select(species, body_mass_g) %>% 
  mutate(lagged_bm = lag(body_mass_g, n = 1))

# A tibble: 344 × 3
   species body_mass_g lagged_bm
   <fct>         <int>     <int>
 1 Adelie         3750        NA
 2 Adelie         3800      3750
 3 Adelie         3250      3800
 4 Adelie           NA      3250
 5 Adelie         3450        NA
 6 Adelie         3650      3450
 7 Adelie         3625      3650
 8 Adelie         4675      3625
 9 Adelie         3475      4675
10 Adelie         4250      3475
# ℹ 334 more rows
…
